{
  "project_info": {
    "project_number": "597725826629",
    "firebase_url": "https://login-f133e.firebaseio.com",
    "project_id": "login-f133e",
    "storage_bucket": "login-f133e.appspot.com"
  },
  "client": [
    {
      "client_info": {
        "mobilesdk_app_id": "1:597725826629:android:73f8d36d0d5e8693",
        "android_client_info": {
          "package_name": "com.example.aishu.login"
        }
      },
      "oauth_client": [
        {
          "client_id": "597725826629-p1avf7c72q8tba40ru3vctpg10fiun07.apps.googleusercontent.com",
          "client_type": 3
        }
      ],
      "api_key": [
        {
          "current_key": "AIzaSyBUOs8LegkY6uBnFUEc2xbXNYiub1yzNJk"
        }
      ],
      "services": {
        "analytics_service": {
          "status": 1
        },
        "appinvite_service": {
          "status": 1,
          "other_platform_oauth_client": []
        },
        "ads_service": {
          "status": 2
        }
      }
    }
  ],
  "configuration_version": "1"
}